<svg width="44" height="29" viewBox="0 0 44 29" fill="none" xmlns="http://www.w3.org/2000/svg">
<rect width="43.5625" height="29" fill="black" fill-opacity="0"/>
<rect width="43.5625" height="29" fill="black" fill-opacity="0"/>
<rect width="43.5625" height="29" fill="black" fill-opacity="0"/>
<rect width="43.5625" height="29" fill="black" fill-opacity="0"/>
<path d="M21.3134 6.33689H23.4731C23.7533 6.33689 23.9803 6.55251 23.9803 6.81845V8.86908C23.9803 9.1351 24.2074 9.35064 24.4876 9.35064H26.9729C27.2531 9.35056 27.4802 9.13494 27.4802 8.86908V6.81845C27.4802 6.55243 27.7073 6.33681 27.9874 6.33681H30.1472C30.4274 6.33681 30.6544 6.1212 30.6544 5.85526V3.49538C30.6544 3.22936 30.4274 3.01383 30.1472 3.01383H27.9874C27.7073 3.01383 27.4802 2.79821 27.4802 2.53219V0.481637C27.4802 0.215614 27.2531 0 26.9729 0H24.4877C24.2075 0 23.9804 0.215614 23.9804 0.481637V2.53227C23.9804 2.79829 23.7533 3.01391 23.4732 3.01391H21.3135C21.0333 3.01391 20.8063 3.22952 20.8063 3.49546V5.85526C20.8062 6.12128 21.0333 6.33689 21.3134 6.33689Z" fill="#ED222B"/>
<path d="M42.5818 13.1701C42.2914 13.1701 16.6665 13.1701 16.1287 13.1701C17.2525 10.9821 15.5625 8.41982 12.9972 8.41982C8.81131 8.41982 8.49132 8.3266 7.57149 8.75257V7.51641C7.57149 7.0023 7.13264 6.58545 6.591 6.58545H0.980491C0.438856 6.58545 0 7.0023 0 7.51641V28.0691C0 28.5832 0.438856 29.0001 0.980491 29.0001H6.59134C7.13298 29.0001 7.57183 28.5832 7.57183 28.0691V25.797H35.9907V28.0691C35.9907 28.5832 36.4295 29.0001 36.9712 29.0001H42.582C43.1236 29.0001 43.5625 28.5832 43.5625 28.0691V14.101C43.5622 13.5869 43.1234 13.1701 42.5818 13.1701ZM5.61085 27.1381H1.9609V8.44729H5.61077C5.61085 8.58931 5.61085 26.955 5.61085 27.1381ZM19.433 15.0319H35.9905V20.6183H19.433V15.0319ZM9.09277 10.2816H12.9975C13.836 10.2816 14.5185 10.9295 14.5185 11.7258C14.5185 12.5222 13.8361 13.17 12.9975 13.17H9.09277C8.25411 13.17 7.57175 12.5221 7.57175 11.7258C7.57175 10.9296 8.25411 10.2816 9.09277 10.2816ZM7.57175 15.0319C8.69833 15.0319 16.3604 15.0319 17.4721 15.0319V20.6183H7.57175V15.0319ZM35.9907 23.9352H7.57175V22.4801C8.93349 22.4801 34.6128 22.4801 35.9907 22.4801V23.9352ZM41.6013 27.1381H37.9515C37.9515 25.7338 37.9515 16.2991 37.9515 15.0319H41.6013V27.1381Z" fill="#ED222B"/>
</svg>
