<svg width="37" height="42" viewBox="0 0 37 42" fill="none" xmlns="http://www.w3.org/2000/svg">
<rect width="35.612" height="40" fill="black" fill-opacity="0" transform="translate(1 1)"/>
<rect width="35.612" height="40" fill="black" fill-opacity="0" transform="translate(1 1)"/>
<rect width="35.612" height="40" fill="black" fill-opacity="0" transform="translate(1 1)"/>
<path d="M6.12685 8.70442L6.21523 8.79281L6.12684 8.70442C2.74036 12.091 0.875 16.5942 0.875 21.3836C0.875 21.3847 0.875013 21.3857 0.875034 21.3867L0.875 21.3895C0.875 22.1064 1.45612 22.6875 2.17297 22.6875C2.88982 22.6875 3.47094 22.1064 3.47094 21.3895C3.47094 20.8573 3.78179 20.3528 4.30204 19.9762C4.82143 19.6002 5.53916 19.3609 6.32109 19.3609C7.10295 19.3609 7.82066 19.6002 8.34005 19.9762C8.8603 20.3528 9.17117 20.8573 9.17117 21.3895C9.17117 22.1064 9.75229 22.6875 10.4691 22.6875C11.186 22.6875 11.7671 22.1064 11.7671 21.3895C11.7671 20.8573 12.078 20.3528 12.5982 19.9762C13.1176 19.6002 13.8353 19.3609 14.6172 19.3609C15.394 19.3609 16.1074 19.5971 16.6258 19.969C17.144 20.3407 17.4572 20.8389 17.4664 21.3656L17.4659 21.3737C17.4656 21.3789 17.4649 21.3879 17.4649 21.398V36.7559C17.4649 37.7335 16.6693 38.5291 15.6917 38.5291C14.7141 38.5291 13.9186 37.7335 13.9186 36.7559C13.9186 36.039 13.3375 35.4579 12.6206 35.4579C11.9038 35.4579 11.3227 36.039 11.3227 36.7559C11.3227 39.1651 13.2825 41.125 15.6917 41.125C18.1009 41.125 20.0609 39.1651 20.0609 36.7559V21.4397C20.0609 21.4395 20.0609 21.4392 20.0609 21.4388C20.0615 21.4305 20.0632 21.4036 20.0632 21.3895C20.0632 20.8573 20.3741 20.3527 20.8943 19.9761C21.4137 19.6001 22.1314 19.3608 22.9133 19.3608C23.6951 19.3608 24.4128 19.6001 24.9322 19.9761C25.4525 20.3527 25.7634 20.8573 25.7634 21.3895C25.7634 22.1063 26.3445 22.6874 27.0613 22.6874C27.7782 22.6874 28.3593 22.1063 28.3593 21.3895C28.3593 20.8573 28.6702 20.3527 29.1904 19.9761C29.7098 19.6001 30.4275 19.3608 31.2095 19.3608C31.9913 19.3608 32.709 19.6001 33.2284 19.9761C33.7487 20.3527 34.0595 20.8573 34.0595 21.3895C34.0595 22.1063 34.6407 22.6874 35.3575 22.6874C35.4088 22.6874 35.4582 22.6838 35.5058 22.6782C36.1912 22.6433 36.737 22.078 36.737 21.3834C36.737 16.5942 34.8716 12.0909 31.4852 8.70435L31.3968 8.79273L31.4852 8.70435C28.4065 5.62571 24.4046 3.80533 20.104 3.49968V2.17297C20.104 1.45612 19.5229 0.875 18.806 0.875C18.0892 0.875 17.508 1.45612 17.508 2.17297V3.49968C13.2075 3.80541 9.20556 5.62578 6.12685 8.70442ZM31.2094 16.7648C29.5523 16.7648 28.0628 17.3971 27.0613 18.3967C26.0597 17.397 24.5703 16.7648 22.9132 16.7648C21.2561 16.7648 19.7667 17.3971 18.7652 18.3967C17.7636 17.3971 16.2742 16.7648 14.6171 16.7648C12.96 16.7648 11.4706 17.3971 10.4691 18.3967C9.46751 17.3971 7.97811 16.7648 6.32102 16.7648C5.5135 16.7648 4.74658 16.9156 4.05616 17.1849C5.88672 10.7637 11.806 6.04844 18.806 6.04844C25.8191 6.04844 31.7475 10.7811 33.5661 17.2207C32.8522 16.9285 32.0526 16.7648 31.2094 16.7648Z" fill="#ED222B" stroke="#ED222B" stroke-width="0.25"/>
</svg>
