<svg width="214" height="22" viewBox="0 0 214 22" fill="none" xmlns="http://www.w3.org/2000/svg">
<rect width="214" height="22" fill="black" fill-opacity="0"/>
<path d="M37.8778 0.366524V15.5704H33.6092V4.66376H24.7078V15.5704H20.4392V0.366524H37.8778ZM47.4464 0.366524V10.0554L57.0133 0.366524H61.2819V15.5704H57.0133V5.94317L47.4464 15.5704H43.1778V0.366524H47.4464ZM81.7195 15.5704H68.1256L67.9691 19.5919H64.0068L63.7651 11.5181H65.7326C67.8227 9.26415 69.2456 6.03737 69.2456 0.366524H82.9006V11.5181H86.0493L85.8076 19.5919H81.8709L81.7195 15.5704ZM78.632 11.5181V4.66719H73.0308C72.8793 7.5617 71.7883 10.2729 70.6684 11.5181H78.632ZM124.622 15.5704H107.966V0.366524H112.236V11.2749H121.138V0.366524H125.406V11.2749H128.56L128.318 19.5919H124.773L124.622 15.5704ZM145.423 6.46041C144.787 4.69288 142.576 3.77999 140.064 3.77999C137.552 3.77999 135.249 4.69288 134.704 6.46041H145.423ZM158.049 0.366524V5.82156H167.798V0.366524H172.066V15.5704H167.798V10.1171H158.049V15.5704H153.778V0.366524H158.049ZM191.11 4.66376H185.388V15.5704H180.906V4.66376H175.215V0.366524H191.11V4.66376ZM92.7109 12.5235C92.7109 13.2284 92.9186 13.9175 93.3078 14.5036C93.697 15.0898 94.2502 15.5466 94.8974 15.8164C95.5445 16.0861 96.2567 16.1567 96.9437 16.0192C97.6308 15.8816 98.2619 15.5422 98.7572 15.0437C99.2526 14.5453 99.5899 13.9102 99.7266 13.2188C99.8632 12.5274 99.7931 11.8108 99.525 11.1595C99.2569 10.5082 98.803 9.95159 98.2205 9.55996C97.6381 9.16832 96.9533 8.95928 96.2528 8.95928C95.3152 8.96512 94.4177 9.34251 93.7547 10.0097C93.0918 10.6768 92.7167 11.58 92.7109 12.5235ZM134.674 9.16995C135.431 11.1516 138.004 12.0353 141.425 12.0353C145.149 12.0353 148.087 10.9375 149.45 10.0229V13.6796C148.693 14.5359 145.696 15.9643 140.85 15.9643C135.404 15.9643 130.284 13.3747 130.284 7.98303C130.284 2.80202 134.796 0 139.943 0C145.604 0 150.357 3.62585 149.474 9.16995H134.674ZM0.00170203 7.98474C0.00170203 2.77462 4.6958 0.00171277 9.87326 0.00171277C13.6585 0.00171277 16.1417 1.43355 16.8991 2.43893V6.18638C15.6549 5.24266 13.5666 4.03176 10.0537 4.03176C7.33048 4.03176 4.42178 5.25123 4.42178 7.9933C4.42178 10.7354 7.32878 11.9446 10.0537 11.9446C13.5666 11.9446 15.6549 10.7268 16.8974 9.78139V13.5288C16.14 14.5342 13.6636 15.9661 9.87156 15.9661C4.6958 15.9661 0 13.1949 0 7.98474H0.00170203ZM214 7.98474C214 13.1949 209.639 15.9661 204.469 15.9661C201.746 15.9661 199.625 15.2347 198.657 14.565V22H194.257V0.366524H198.527V1.61682C199.526 0.854652 201.735 0.00171277 204.46 0.00171277C209.638 0.00171277 213.991 2.77462 213.991 7.98474H214ZM203.766 12.0662C206.489 12.0662 209.58 10.7868 209.58 8.04469C209.58 5.30261 206.491 4.03176 203.766 4.03176C201.495 4.03176 199.559 4.67232 198.529 5.49443V10.6343C199.467 11.4873 201.495 12.0662 203.766 12.0662Z" fill="#000006"/>
</svg>
