<svg width="60" height="60" viewBox="0 0 60 60" fill="none" xmlns="http://www.w3.org/2000/svg">
<rect width="59.999" height="60" fill="black" fill-opacity="0"/>
<rect width="59.999" height="60" fill="black" fill-opacity="0"/>
<rect width="59.999" height="60" fill="black" fill-opacity="0"/>
<path d="M56.6986 3.30047C54.4989 1.10029 51.8488 0 48.7501 0H11.2499C8.15124 0 5.50106 1.10029 3.30047 3.30047C1.10029 5.50106 0 8.1511 0 11.2499V48.7497C0 51.8482 1.10029 54.4985 3.30047 56.6991C5.50106 58.8997 8.15124 60 11.2499 60H48.7497C51.8484 60 54.4985 58.8997 56.6982 56.6991C58.8988 54.4985 59.999 51.8484 59.999 48.7497V11.2499C59.9989 8.1511 58.8986 5.50065 56.6986 3.30047ZM35.4299 8.67129H38.0472V19.2958C38.0472 19.9211 38.0594 20.2597 38.0855 20.3118C38.1118 20.7286 38.3207 20.9367 38.711 20.9367C39.2318 20.9367 39.7792 20.5333 40.3516 19.7261V8.67129H42.969V23.1244H40.3516H40.3507V21.5612C39.2831 22.7328 38.2807 23.3194 37.3434 23.3194C36.5104 23.3194 35.9504 22.968 35.6635 22.2648C35.507 21.7963 35.4299 21.0799 35.4299 20.1162V8.67129ZM25.547 13.359C25.547 11.8488 25.8205 10.7156 26.3674 9.96066C27.0704 8.97119 28.0857 8.47618 29.4138 8.47618C30.6902 8.47618 31.7061 8.9716 32.4605 9.96066C33.0078 10.7158 33.2812 11.8488 33.2812 13.359V18.4373C33.2812 19.9999 33.0078 21.1327 32.4605 21.8357C31.7061 22.8257 30.6902 23.3204 29.4138 23.3204C28.0857 23.3204 27.0704 22.8253 26.3674 21.8357C25.8205 21.0805 25.547 19.9476 25.547 18.4373V13.359ZM18.5154 3.71038L20.5859 11.328L22.5779 3.71038H25.5078L21.9919 15.2729H21.9925V23.1244H19.1019V15.2729C18.8151 13.8407 18.2163 11.7834 17.3049 9.10131C16.7061 7.30433 16.4065 6.40584 16.4065 6.40584L15.4686 3.71038H18.5154ZM50.7036 50.8594C50.4432 51.9786 49.8898 52.9289 49.0428 53.711C48.1971 54.492 47.2144 54.948 46.0943 55.0786C42.527 55.4687 37.1617 55.6642 30.0006 55.6642C22.839 55.6642 17.4745 55.4686 13.9069 55.0786C12.7873 54.948 11.8044 54.492 10.9578 53.711C10.1114 52.9289 9.55828 51.9786 9.29778 50.8594C8.77718 48.6716 8.51682 45.2858 8.51682 40.703C8.51682 36.1969 8.77718 32.8126 9.29778 30.5465C9.55842 29.4007 10.1116 28.4435 10.9578 27.675C11.8044 26.9065 12.8002 26.4572 13.9462 26.3272C17.4873 25.936 22.839 25.741 30.0006 25.741C37.1884 25.741 42.5532 25.9366 46.0943 26.3272C47.2144 26.4576 48.2027 26.9063 49.0623 27.675C49.9219 28.4431 50.4825 29.4001 50.7427 30.5465C51.2366 32.7078 51.4844 36.093 51.4844 40.703C51.4846 45.2857 51.224 48.6709 50.7036 50.8594Z" fill="#ED222B"/>
<path d="M11.7183 33.4765H14.7652V49.9997H17.6558V33.4765H20.7809V30.7421H11.7183V33.4765Z" fill="#ED222B"/>
<path d="M26.0156 46.6013C25.4427 47.408 24.8956 47.8118 24.375 47.8118C24.0103 47.8118 23.815 47.6165 23.789 47.226C23.7628 47.1741 23.7497 46.8356 23.7497 46.21V35.663H21.1716V46.991C21.1716 47.9807 21.2499 48.684 21.4063 49.0998C21.6405 49.8293 22.1876 50.1935 23.0469 50.1935C24.0103 50.1935 25 49.6078 26.0156 48.4358V49.9988H28.6323V35.6639H26.0156V46.6013Z" fill="#ED222B"/>
<path d="M36.1332 35.4682C35.1958 35.4682 34.31 35.9889 33.4774 37.0311V30.7421H30.8601V49.9997H33.4774V48.5933C34.3361 49.6608 35.2226 50.1945 36.1332 50.1945C37.2012 50.1945 37.8909 49.6477 38.2028 48.5539C38.3853 48.0071 38.4761 47.0566 38.4761 45.7025V39.9996C38.4761 38.6193 38.3843 37.6556 38.2028 37.1088C37.8908 36.0151 37.2011 35.4682 36.1332 35.4682ZM35.8986 45.8983C35.8986 47.1741 35.5212 47.8113 34.7656 47.8122C34.3237 47.8122 33.8932 47.6036 33.4765 47.1868V38.4367C33.8932 38.0211 34.3235 37.8123 34.7656 37.8123C35.5212 37.8123 35.8986 38.4626 35.8986 39.7648V45.8983Z" fill="#ED222B"/>
<path d="M45.6239 45.8786C45.6239 46.152 45.6172 46.3663 45.6052 46.5229C45.5925 46.6792 45.5854 46.7705 45.5854 46.7962C45.4294 47.4728 45.0385 47.8113 44.4135 47.8113C43.528 47.8113 43.0851 47.1473 43.0851 45.8195V43.2808H48.2805V40.3114C48.2805 38.8014 48.0076 37.6819 47.4603 36.9524C46.7579 35.9631 45.7419 35.4677 44.4135 35.4677C43.0851 35.4677 42.0439 35.9629 41.2882 36.9524C40.7674 37.6557 40.5072 38.7761 40.5072 40.3114V45.3507C40.5072 46.8874 40.7806 48.0075 41.3274 48.7107C42.0831 49.7001 43.1375 50.1955 44.4922 50.1955C45.8724 50.1955 46.9137 49.6748 47.6175 48.6326C47.9297 48.1635 48.1259 47.6429 48.2037 47.0701C48.2552 46.7054 48.2814 46.1454 48.2814 45.3903V45.0396V45.0387H45.6248V45.8787H45.6239V45.8786ZM43.0861 39.804C43.0861 38.4762 43.516 37.8122 44.3752 37.8122C45.2348 37.8122 45.6642 38.4762 45.6642 39.804V41.1328H43.0861V39.804Z" fill="#ED222B"/>
<path d="M29.4138 20.9366C30.2471 20.9366 30.6636 20.2729 30.6636 18.9448V12.8509C30.6636 11.4971 30.2471 10.8196 29.4138 10.8196C28.5806 10.8196 28.1639 11.4971 28.1639 12.8509V18.9448C28.1639 20.2725 28.5806 20.9366 29.4138 20.9366Z" fill="#ED222B"/>
</svg>
